2019-01-16 18:58:12,312 WARNING pid succesfully created
2019-01-16 18:58:32,832 WARNING ERROR : pid file exist, it means that some wrapper still running 
2019-01-16 18:58:53,610 WARNING ERROR : pid file exist, it means that some wrapper still running 
2019-01-16 18:59:04,565 WARNING pid succesfully created
2019-01-16 18:59:06,614 WARNING pid file successfully removed
2019-01-16 19:00:20,489 WARNING pid succesfully created
2019-01-16 19:00:22,543 WARNING pid file successfully removed
2019-01-16 19:05:15,361 WARNING pid succesfully created
2019-01-16 19:05:54,156 WARNING ERROR : pid file exist, it means that some wrapper still running 
2019-01-16 19:06:14,929 WARNING pid succesfully created
2019-01-16 19:06:16,972 WARNING pid file successfully removed
2019-01-16 19:08:59,414 WARNING pid succesfully created
2019-01-16 19:09:01,463 WARNING pid file successfully removed
2019-01-16 19:09:08,288 WARNING pid succesfully created
2019-01-16 19:09:10,331 WARNING pid file successfully removed
2019-01-16 19:23:27,736 WARNING pid succesfully created
2019-01-16 19:23:29,804 WARNING pid file successfully removed
2019-01-16 19:45:04,169 WARNING pid succesfully created
2019-01-16 19:45:06,229 WARNING pid file successfully removed
2019-01-16 19:46:42,824 WARNING pid succesfully created
2019-01-16 19:46:44,882 WARNING pid file successfully removed
2019-01-16 19:47:03,044 WARNING pid succesfully created
2019-01-16 19:47:05,083 WARNING pid file successfully removed
2019-01-16 19:48:57,068 WARNING pid succesfully created
2019-01-16 19:48:59,107 WARNING pid file successfully removed
2019-01-16 19:49:21,895 WARNING pid succesfully created
2019-01-16 19:49:23,929 WARNING pid file successfully removed
2019-01-16 19:51:39,168 WARNING pid succesfully created
2019-01-16 19:51:41,205 WARNING pid file successfully removed
2019-01-16 19:51:53,918 WARNING pid succesfully created
2019-01-16 19:51:55,952 WARNING pid file successfully removed
2019-01-16 19:52:27,828 WARNING pid succesfully created
2019-01-16 19:52:29,862 WARNING pid file successfully removed
2019-01-16 19:52:56,294 WARNING pid succesfully created
2019-01-16 19:52:58,329 WARNING pid file successfully removed
2019-01-16 19:53:45,656 WARNING pid succesfully created
2019-01-16 19:53:47,694 WARNING pid file successfully removed
2019-01-16 19:53:59,761 WARNING pid succesfully created
2019-01-16 19:54:01,798 WARNING pid file successfully removed
2019-01-16 19:55:38,921 WARNING pid succesfully created
2019-01-16 19:55:40,969 WARNING pid file successfully removed
2019-01-16 19:56:04,105 WARNING pid succesfully created
2019-01-16 19:56:06,148 WARNING pid file successfully removed
2019-01-16 19:57:02,132 WARNING pid succesfully created
2019-01-16 19:57:04,177 WARNING pid file successfully removed
2019-01-16 19:57:52,697 WARNING pid succesfully created
2019-01-16 19:57:54,738 WARNING pid file successfully removed
2019-01-16 19:59:20,192 WARNING pid succesfully created
2019-01-16 19:59:22,241 WARNING pid file successfully removed
2019-01-16 20:00:57,157 WARNING pid succesfully created
2019-01-16 20:00:59,198 WARNING pid file successfully removed
2019-01-16 20:03:28,404 WARNING pid succesfully created
2019-01-16 20:03:30,454 WARNING pid file successfully removed
2019-01-16 20:04:00,642 WARNING pid succesfully created
2019-01-16 20:04:02,693 WARNING pid file successfully removed
2019-01-16 20:05:53,576 WARNING pid succesfully created
2019-01-16 20:05:55,624 WARNING pid file successfully removed
2019-01-16 20:06:25,089 WARNING pid succesfully created
2019-01-16 20:06:27,132 WARNING pid file successfully removed
2019-01-16 20:08:38,231 WARNING pid succesfully created
2019-01-16 20:08:40,278 WARNING pid file successfully removed
2019-01-16 20:09:08,994 WARNING pid succesfully created
2019-01-16 20:09:11,039 WARNING pid file successfully removed
2019-01-16 20:10:12,255 WARNING pid succesfully created
2019-01-16 20:10:14,302 WARNING pid file successfully removed
2019-01-16 20:10:33,420 WARNING pid succesfully created
2019-01-16 20:10:35,464 WARNING pid file successfully removed
2019-01-16 20:11:30,057 WARNING pid succesfully created
2019-01-16 20:11:32,105 WARNING pid file successfully removed
2019-01-16 20:12:42,265 WARNING pid succesfully created
2019-01-16 20:12:44,314 WARNING pid file successfully removed
2019-01-16 20:14:05,647 WARNING pid succesfully created
2019-01-16 20:15:11,280 WARNING ERROR : pid file exist, it means that some wrapper still running 
