ACEH,BNAC,BNAC,10.31.100.234
ACEH,BTNA,BTNA,10.31.97.241
ACEH,BNNA,BNNA,10.31.97.221
ACEH,DARA,DARA,10.31.97.234
ACEH,JTOA,JTOA,10.31.97.223
ACEH,LBRA,LBRA,10.31.97.220
ACEH,LNOA,LNOA,10.31.97.224
ACEH,LTMA,LTMA,10.31.97.199
ACEH,LOAA,LOAA,10.31.97.232
ACEH,MRDA,MRDA,10.31.97.225
ACEH,SABA,SABA,10.31.97.226
ACEH,SMMA,SMMA,10.31.97.227
ACEH,SGIA,SGIA,10.31.97.228
ACEH,TSEA,TSEA,10.31.97.229
ACEH,BAKA,BAKA,10.31.97.230
ACEH,BPDA,BPDA,10.31.97.219
ACEH,CAGA,CAGA,10.31.97.222
ACEH,JRMA,JRMA,10.31.97.218
ACEH,KFRA,KFRA,10.31.97.217
ACEH,LMIA,LMIA,10.31.97.233
ACEH,MBOA,MBOA,10.31.97.215
ACEH,SNBA,SNBA,10.31.97.239
ACEH,SUSA,SUSA,10.31.97.214
ACEH,TTNA,TTNA,10.31.97.213
ACEH,TNMA,TNMA,10.31.97.231
ACEH,BIRA,BIRA,10.31.97.210
ACEH,BKJA,BKJA,10.31.97.238
ACEH,GDGA,GDGA,10.31.97.209
ACEH,IDIA,IDIA,10.31.97.208
ACEH,KGHA,KGHA,10.31.97.207
ACEH,KSGA,KSGA,10.31.97.206
ACEH,KTNA,KTNA,10.31.97.216
ACEH,LGSA,LGSA,10.31.97.205
ACEH,LSMA,LSMA,10.31.97.204
ACEH,LSKA,LSKA,10.31.97.203
ACEH,MGDA,MGDA,10.31.97.202
ACEH,MKLA,MKLA,10.31.97.201
ACEH,PTLA,PTLA,10.31.97.200
ACEH,PRLA,PRLA,10.31.97.212
ACEH,SMLA,SMLA,10.31.97.211
ACEH,SPUL,SPUL,10.31.97.235
ACEH,TKNA,TKNA,10.31.97.236
MEDAN,CTDA,CTDA,10.16.55.103
MEDAN,GLGA,GLGA,10.16.63.21
MEDAN,JPTA,JPTA,10.16.20.220
MEDAN,KIMA,KIMA,10.16.74.201
MEDAN,MDNC,MDNC,10.16.31.21
MEDAN,PDBA,PDBA,10.16.65.203
MEDAN,PBDA,PBDA,10.16.55.105
MEDAN,PSSA,PSSA,10.16.40.201
MEDAN,SPLA,SPLA,10.16.59.201
MEDAN,STBA,STBA,10.16.40.204
MEDAN,SKIB,SKIB,10.16.52.201
MEDAN,TJRA,TJRA,10.16.58.201
MEDAN,TJMA,TJMA,10.16.55.101
MEDAN,TMBA,TMBA,10.16.76.201
MEDAN,KNIA,KNIA,10.16.45.45
MEDAN,BJIA,BJIA,10.16.55.104
MEDAN,CNDC,CNDC,10.16.214.111
MEDAN,DLTA,DLTA,10.16.80.201
MEDAN,KPTI,KPTI,10.16.67.205
MEDAN,LBPA,LBPA,10.16.63.200
MEDAN,PERA,PERA,10.16.67.201
MEDAN,PRCA,PRCA,10.16.78.201
MEDAN,PUBA,PUBA,10.16.54.201
MEDAN,KULA,KULA,10.16.69.201
MEDAN,TJPA,TJPA,10.16.70.201
MEDAN,TTCA,TTCA,10.16.45.46
MEDAN,TTGA,TTGA,10.16.55.102
SUMUT,ANRA,ANRA,10.19.201.5
SUMUT,IDAA,IDAA,10.19.48.201
SUMUT,KISA,KISA,10.19.201.48
SUMUT,KPIA,KPIA,10.19.38.201
SUMUT,LBKA,LBKA,10.19.201.3
SUMUT,NGBA,NGBA,10.19.201.52
SUMUT,PDNA,PDNA,10.19.201.2
SUMUT,PRAA,PRAA,10.19.34.22
SUMUT,RBMA,RBMA,10.19.201.1
SUMUT,RAPA,RAPA,10.19.37.201
SUMUT,SRAA,SRAA,10.19.201.19
SUMUT,SBNA,SBNA,10.19.18.21
SUMUT,SPEA,SPEA,10.19.201.30
SUMUT,TJBA,TJBA,10.19.201.4
SUMUT,TGDA,TGDA,10.19.29.201
SUMUT,TBTA,TBTA,10.19.201.15
SUMUT,MHTT,MHTT,10.19.201.47
SUMUT,ANPA,ANPA,10.19.28.201
SUMUT,ABAA,ABAA,10.19.24.202
SUMUT,BLGA,BLGA,10.19.201.27
SUMUT,BGOA,BGOA,10.19.201.36
SUMUT,GNTA,GNTA,10.19.201.41
SUMUT,KONA,KONA,10.19.201.40
SUMUT,PRRA,PRRA,10.19.36.201
SUMUT,PMSC,PMSC,10.19.21.204
SUMUT,PYBA,PYBA,10.19.201.39
SUMUT,PSAA,PSAA,10.19.201.25
SUMUT,SIBA,SIBA,10.19.201.28
SUMUT,SIHA,SIHA,10.19.17.202
SUMUT,SIPA,SIPA,10.19.201.43
SUMUT,TRTA,TRTA,10.19.201.32